…
Predictions are done much the same way. Here we use the model to predict on the data it was trained on.


::: {.cell}

```{.r .cell-code}
predict(lr_fit, new_data = Smarket)
```

::: {.cell-output .cell-output-stdout}
```
# A tibble: 1,250 × 1
   .pred_class
   <fct>      
 1 Up         
 2 Down       
 3 Down       
 4 Up         
 5 Up         
 6 Up         
 7 Down       
 8 Up         
 9 Up         
10 Down       
# ℹ 1,240 more rows
```
…
The result is a tibble with a single column `.pred_class` which will be a factor variable of the same labels as the original training data set.

We can also get back probability predictions, by specifying `type = "prob"`.


::: {.cell}

```{.r .cell-code}
predict(lr_fit, new_data = Smarket, type = "prob")
```

::: {.cell-output .cell-output-stdout}
```
# A tibble: 1,250 × 2
   .pred_Down .pred_Up
        <dbl>    <dbl>
 1      0.493    0.507
 2      0.519    0.481
 3      0.519    0.481
 4      0.485    0.515
 5      0.489    0.511
 6      0.493    0.507
 7      0.507    0.493
 8      0.491    0.509
 9      0.482    0.518
10      0.511    0.489
# ℹ 1,240 more rows
```
…
One of the things to look for in the LDA output is the group means. We see that there is a slight difference between the means of the two groups. These suggest that there is a tendency for the previous 2 days' returns to be negative on days when the market increases, and a tendency for the previous day's returns to be positive on days when the market declines.

Predictions are done just the same as with logistic regression:


::: {.cell}

```{.r .cell-code}
predict(lda_fit, new_data = Smarket_test)
```

::: {.cell-output .cell-output-stdout}
```
# A tibble: 252 × 1
   .pred_class
   <fct>      
 1 Up         
 2 Up         
 3 Up         
 4 Up         
 5 Up         
 6 Up         
 7 Up         
 8 Up         
 9 Up         
10 Up         
# ℹ 242 more rows
```
:::

```{.r .cell-code}
predict(lda_fit, new_data = Smarket_test, type = "prob")
```

::: {.cell-output .cell-output-stdout}
```
# A tibble: 252 × 2
   .pred_Down .pred_Up
        <dbl>    <dbl>
 1      0.490    0.510
 2      0.479    0.521
 3      0.467    0.533
 4      0.474    0.526
 5      0.493    0.507
 6      0.494    0.506
 7      0.495    0.505
 8      0.487    0.513
 9      0.491    0.509
10      0.484    0.516
# ℹ 242 more rows
```
…
::: {.cell}

```{.r .cell-code}
preds <- imap_dfr(models, augment, 
                  new_data = Smarket_test, .id = "model")

preds %>%
  select(model, Direction, .pred_class, .pred_Down, .pred_Up)
```

::: {.cell-output .cell-output-stdout}
```
# A tibble: 1,008 × 5
   model               Direction .pred_class .pred_Down .pred_Up
   <chr>               <fct>     <fct>            <dbl>    <dbl>
 1 logistic regression Down      Up               0.490    0.510
 2 logistic regression Down      Up               0.479    0.521
 3 logistic regression Down      Up               0.467    0.533
 4 logistic regression Up        Up               0.474    0.526
 5 logistic regression Down      Up               0.493    0.507
 6 logistic regression Up        Up               0.494    0.506
 7 logistic regression Down      Up               0.495    0.505
 8 logistic regression Up        Up               0.487    0.513
 9 logistic regression Down      Up               0.491    0.509
10 logistic regression Up        Up               0.484    0.516
# ℹ 998 more rows
```
…
