…
## Principal Components Analysis

This section will be used to explore the `USArrests` data set using PCA. Before we move on, let is turn `USArrests` into a tibble and move the rownames into a column.


::: {.cell}

```{.r .cell-code}
USArrests <- as_tibble(USArrests, rownames = "state")
USArrests
```

::: {.cell-output .cell-output-stdout}
```
# A tibble: 50 × 5
   state       Murder Assault UrbanPop  Rape
   <chr>        <dbl>   <int>    <int> <dbl>
 1 Alabama       13.2     236       58  21.2
 2 Alaska        10       263       48  44.5
 3 Arizona        8.1     294       80  31  
 4 Arkansas       8.8     190       50  19.5
 5 California     9       276       91  40.6
 6 Colorado       7.9     204       78  38.7
 7 Connecticut    3.3     110       77  11.1
 8 Delaware       5.9     238       72  15.8
 9 Florida       15.4     335       80  31.9
10 Georgia       17.4     211       60  25.8
# ℹ 40 more rows
```
…
Now we can use our favorite broom function to extract information from this `prcomp` object. 
We start with `tidy()`. `tidy()` can be used to extract a couple of different things, see `?broom:::tidy.prcomp()` for more information. `tidy()` will by default extract the scores of a PCA object in long tidy format. The score is the location of the observation in PCA space. So we can 


::: {.cell}

```{.r .cell-code}
tidy(USArrests_pca)
```

::: {.cell-output .cell-output-stdout}
```
# A tibble: 200 × 3
     row    PC  value
   <int> <dbl>  <dbl>
 1     1     1 -0.976
 2     1     2 -1.12 
 3     1     3  0.440
 4     1     4  0.155
 5     2     1 -1.93 
 6     2     2 -1.06 
 7     2     3 -2.02 
 8     2     4 -0.434
 9     3     1 -1.75 
10     3     2  0.738
# ℹ 190 more rows
```
…
We can also explicitly say we want the scores by setting `matrix = "scores"`.


::: {.cell}

```{.r .cell-code}
tidy(USArrests_pca, matrix = "scores")
```

::: {.cell-output .cell-output-stdout}
```
# A tibble: 200 × 3
     row    PC  value
   <int> <dbl>  <dbl>
 1     1     1 -0.976
 2     1     2 -1.12 
 3     1     3  0.440
 4     1     4  0.155
 5     2     1 -1.93 
 6     2     2 -1.06 
 7     2     3 -2.02 
 8     2     4 -0.434
 9     3     1 -1.75 
10     3     2  0.738
# ℹ 190 more rows
```
…
Lastly, we have the `augment()` function which will give you back the fitted PC transformation if you apply it to the `prcomp()` object directly


::: {.cell}

```{.r .cell-code}
augment(USArrests_pca)
```

::: {.cell-output .cell-output-stdout}
```
# A tibble: 50 × 5
   .rownames .fittedPC1 .fittedPC2 .fittedPC3 .fittedPC4
   <chr>          <dbl>      <dbl>      <dbl>      <dbl>
 1 1            -0.976     -1.12       0.440     0.155  
 2 2            -1.93      -1.06      -2.02     -0.434  
 3 3            -1.75       0.738     -0.0542   -0.826  
 4 4             0.140     -1.11      -0.113    -0.181  
 5 5            -2.50       1.53      -0.593    -0.339  
 6 6            -1.50       0.978     -1.08      0.00145
 7 7             1.34       1.08       0.637    -0.117  
 8 8            -0.0472     0.322      0.711    -0.873  
 9 9            -2.98      -0.0388     0.571    -0.0953 
10 10           -1.62      -1.27       0.339     1.07   
# ℹ 40 more rows
```
…
By calling `bake(new_data = NULL)` we can get the fitted PC transformation of our numerical variables


::: {.cell}

```{.r .cell-code}
pca_rec %>%
  bake(new_data = NULL)
```

::: {.cell-output .cell-output-stdout}
```
# A tibble: 50 × 5
   state           PC1     PC2     PC3      PC4
   <fct>         <dbl>   <dbl>   <dbl>    <dbl>
 1 Alabama     -0.976  -1.12    0.440   0.155  
 2 Alaska      -1.93   -1.06   -2.02   -0.434  
 3 Arizona     -1.75    0.738  -0.0542 -0.826  
 4 Arkansas     0.140  -1.11   -0.113  -0.181  
 5 California  -2.50    1.53   -0.593  -0.339  
 6 Colorado    -1.50    0.978  -1.08    0.00145
 7 Connecticut  1.34    1.08    0.637  -0.117  
 8 Delaware    -0.0472  0.322   0.711  -0.873  
 9 Florida     -2.98   -0.0388  0.571  -0.0953 
10 Georgia     -1.62   -1.27    0.339   1.07   
# ℹ 40 more rows
```
…
::: {.cell}

```{.r .cell-code}
recipe(~., data = USArrests) %>%
  step_normalize(all_numeric()) %>%
  step_pca(all_numeric(), num_comp = 3) %>%
  prep() %>%
  bake(new_data = NULL)
```

::: {.cell-output .cell-output-stdout}
```
# A tibble: 50 × 4
   state           PC1     PC2     PC3
   <fct>         <dbl>   <dbl>   <dbl>
 1 Alabama     -0.976  -1.12    0.440 
 2 Alaska      -1.93   -1.06   -2.02  
 3 Arizona     -1.75    0.738  -0.0542
 4 Arkansas     0.140  -1.11   -0.113 
 5 California  -2.50    1.53   -0.593 
 6 Colorado    -1.50    0.978  -1.08  
 7 Connecticut  1.34    1.08    0.637 
 8 Delaware    -0.0472  0.322   0.711 
 9 Florida     -2.98   -0.0388  0.571 
10 Georgia     -1.62   -1.27    0.339 
# ℹ 40 more rows
```
…
::: {.cell}

```{.r .cell-code}
recipe(~., data = USArrests) %>%
  step_normalize(all_numeric()) %>%
  step_pca(all_numeric(), threshold = 0.7) %>%
  prep() %>%
  bake(new_data = NULL)
```

::: {.cell-output .cell-output-stdout}
```
# A tibble: 50 × 3
   state           PC1     PC2
   <fct>         <dbl>   <dbl>
 1 Alabama     -0.976  -1.12  
 2 Alaska      -1.93   -1.06  
 3 Arizona     -1.75    0.738 
 4 Arkansas     0.140  -1.11  
 5 California  -2.50    1.53  
 6 Colorado    -1.50    0.978 
 7 Connecticut  1.34    1.08  
 8 Delaware    -0.0472  0.322 
 9 Florida     -2.98   -0.0388
10 Georgia     -1.62   -1.27  
# ℹ 40 more rows
```
…
and `extract_cluster_assignment()`


::: {.cell}

```{.r .cell-code}
extract_cluster_assignment(kmeans_fit)
```

::: {.cell-output .cell-output-stdout}
```
# A tibble: 50 × 1
   .cluster 
   <fct>    
 1 Cluster_1
 2 Cluster_1
 3 Cluster_1
 4 Cluster_1
 5 Cluster_1
 6 Cluster_1
 7 Cluster_1
 8 Cluster_1
 9 Cluster_1
10 Cluster_1
# ℹ 40 more rows
```
…
prediction in a clustering model isn't well defined. But we can think of it as "what cluster would these observations be in if they were part of the data set". For the k-means case, it looks at which centroid these observations are closest to.


::: {.cell}

```{.r .cell-code}
predict(kmeans_fit, new_data = x_df)
```

::: {.cell-output .cell-output-stdout}
```
# A tibble: 50 × 1
   .pred_cluster
   <fct>        
 1 Cluster_1    
 2 Cluster_1    
 3 Cluster_1    
 4 Cluster_1    
 5 Cluster_1    
 6 Cluster_1    
 7 Cluster_1    
 8 Cluster_1    
 9 Cluster_1    
10 Cluster_1    
# ℹ 40 more rows
```
…
Lastly, we can see what cluster each observation belongs to by using `augment()`, which does the same thing as `predict()` but add it to the orginial data set. This makes it handy for EDA and plotting the results.


::: {.cell}

```{.r .cell-code}
augment(kmeans_fit, new_data = x_df)
```

::: {.cell-output .cell-output-stdout}
```
# A tibble: 50 × 3
        V1     V2 .pred_cluster
     <dbl>  <dbl> <fct>        
 1 -0.897  -0.838 Cluster_1    
 2  0.185   2.07  Cluster_1    
 3  1.59   -0.562 Cluster_1    
 4 -1.13    1.28  Cluster_1    
 5 -0.0803 -1.05  Cluster_1    
 6  0.132  -1.97  Cluster_1    
 7  0.708  -0.323 Cluster_1    
 8 -0.240   0.936 Cluster_1    
 9  1.98    1.14  Cluster_1    
10 -0.139   1.67  Cluster_1    
# ℹ 40 more rows
```
…
and the cluster assignments


::: {.cell}

```{.r .cell-code}
nci60_kmeans %>%
  extract_cluster_assignment(nci60_kmeans)
```

::: {.cell-output .cell-output-stdout}
```
# A tibble: 64 × 1
   .cluster 
   <fct>    
 1 Cluster_1
 2 Cluster_1
 3 Cluster_1
 4 Cluster_2
 5 Cluster_2
 6 Cluster_2
 7 Cluster_2
 8 Cluster_2
 9 Cluster_1
10 Cluster_1
# ℹ 54 more rows
```
…
