Chapter 4 Classification | ISLR tidymodels Labs
…
## # A tibble: 7 x 5
##   term        estimate std.error statistic p.value
##   <chr>          <dbl>     <dbl>     <dbl>   <dbl>
## 1 (Intercept) -0.126      0.241     -0.523   0.601
## 2 Lag1        -0.0731     0.0502    -1.46    0.145
## 3 Lag2        -0.0423     0.0501    -0.845   0.398
## 4 Lag3         0.0111     0.0499     0.222   0.824
## 5 Lag4         0.00936    0.0500     0.187   0.851
## 6 Lag5         0.0103     0.0495     0.208   0.835
## 7 Volume       0.135      0.158      0.855   0.392

predict(lr_fit, new_data = Smarket)

## # A tibble: 1,250 x 1
##    .pred_class
##    <fct>      
##  1 Up         
##  2 Down       
##  3 Down       
##  4 Up         
##  5 Up         
##  6 Up         
##  7 Down       
##  8 Up         
##  9 Up         
## 10 Down       
## # … with 1,240 more rows

predict(lr_fit, new_data = Smarket, type = "prob")

## # A tibble: 1,250 x 2
##    .pred_Down .pred_Up
##         <dbl>    <dbl>
##  1      0.493    0.507
##  2      0.519    0.481
##  3      0.519    0.481
##  4      0.485    0.515
##  5      0.489    0.511
##  6      0.493    0.507
##  7      0.507    0.493
##  8      0.491    0.509
##  9      0.482    0.518
## 10      0.511    0.489
## # … with 1,240 more rows
…
