Chapter 3 Linear Regression | ISLR tidymodels Labs
…
glance(lm_fit)

## # A tibble: 1 x 12
##   r.squared adj.r.squared sigma statistic  p.value    df logLik   AIC   BIC
##       <dbl>         <dbl> <dbl>     <dbl>    <dbl> <dbl>  <dbl> <dbl> <dbl>
## 1     0.544         0.543  6.22      602. 5.08e-88     1 -1641. 3289. 3302.
## # … with 3 more variables: deviance <dbl>, df.residual <int>, nobs <int>

predict(lm_fit)

## Error in predict_numeric(object = object, new_data = new_data, ...): argument "new_data" is missing, with no default

predict(lm_fit, new_data = Boston)

## # A tibble: 506 x 1
##    .pred
##    <dbl>
##  1 29.8 
##  2 25.9 
##  3 30.7 
##  4 31.8 
##  5 29.5 
##  6 29.6 
##  7 22.7 
##  8 16.4 
##  9  6.12
## 10 18.3 
## # … with 496 more rows

predict(lm_fit, new_data = Boston, type = "conf_int")

## # A tibble: 506 x 2
##    .pred_lower .pred_upper
##          <dbl>       <dbl>
##  1       29.0        30.6 
##  2       25.3        26.5 
##  3       29.9        31.6 
##  4       30.8        32.7 
##  5       28.7        30.3 
##  6       28.8        30.4 
##  7       22.2        23.3 
##  8       15.6        17.1 
##  9        4.70        7.54
## 10       17.7        18.9 
## # … with 496 more rows

augment(lm_fit, new_data = Boston)

## # A tibble: 506 x 16
##       crim    zn indus  chas   nox    rm   age   dis   rad   tax ptratio black
##      <dbl> <dbl> <dbl> <int> <dbl> <dbl> <dbl> <dbl> <int> <dbl>   <dbl> <dbl>
##  1 0.00632  18    2.31     0 0.538  6.58  65.2  4.09     1   296    15.3  397.
##  2 0.0273    0    7.07     0 0.469  6.42  78.9  4.97     2   242    17.8  397.
##  3 0.0273    0    7.07     0 0.469  7.18  61.1  4.97     2   242    17.8  393.
##  4 0.0324    0    2.18     0 0.458  7.00  45.8  6.06     3   222    18.7  395.
##  5 0.0690    0    2.18     0 0.458  7.15  54.2  6.06     3   222    18.7  397.
##  6 0.0298    0    2.18     0 0.458  6.43  58.7  6.06     3   222    18.7  394.
##  7 0.0883   12.5  7.87     0 0.524  6.01  66.6  5.56     5   311    15.2  396.
##  8 0.145    12.5  7.87     0 0.524  6.17  96.1  5.95     5   311    15.2  397.
##  9 0.211    12.5  7.87     0 0.524  5.63 100    6.08     5   311    15.2  387.
## 10 0.170    12.5  7.87     0 0.524  6.00  85.9  6.59     5   311    15.2  387.
## # … with 496 more rows, and 4 more variables: lstat <dbl>, medv <dbl>,
## #   .pred <dbl>, .resid <dbl>
…
3.6 Qualitative predictors

Carseats

## # A tibble: 400 x 11
##    Sales CompPrice Income Advertising Population Price ShelveLoc   Age Education
##    <dbl>     <dbl>  <dbl>       <dbl>      <dbl> <dbl> <fct>     <dbl>     <dbl>
##  1  9.5        138     73          11        276   120 Bad          42        17
##  2 11.2        111     48          16        260    83 Good         65        10
##  3 10.1        113     35          10        269    80 Medium       59        12
##  4  7.4        117    100           4        466    97 Medium       55        14
##  5  4.15       141     64           3        340   128 Bad          38        13
##  6 10.8        124    113          13        501    72 Bad          78        16
##  7  6.63       115    105           0         45   108 Medium       71        15
##  8 11.8        136     81          15        425   120 Good         67        10
##  9  6.54       132    110           0        108   124 Medium       76        10
## 10  4.69       132    113           0        131   124 Medium       76        17
## # … with 390 more rows, and 2 more variables: Urban <fct>, US <fct>
…
