ISLR tidymodels labs - 5 Resampling Methods
…
<Training/Testing/Total>
<194/198/392>

The testing and training data sets can be materialized using the testing() and training() functions respectively.

Auto_train <- training(Auto_split)
Auto_test <- testing(Auto_split)

And by looking at Auto_train and Auto_test we see that the lengths match what we expect.

Auto_train

# A tibble: 194 × 9
     mpg cylinders displacement horsepower weight acceleration  year origin
   <dbl>     <dbl>        <dbl>      <dbl>  <dbl>        <dbl> <dbl>  <dbl>
 1    15         8          350        165   3693         11.5    70      1
 2    16         8          304        150   3433         12      70      1
 3    14         8          440        215   4312          8.5    70      1
 4    14         8          455        225   4425         10      70      1
 5    10         8          307        200   4376         15      70      1
 6    17         6          250        100   3329         15.5    71      1
 7    14         8          400        175   4464         11.5    71      1
 8    14         8          351        153   4154         13.5    71      1
 9    14         8          318        150   4096         13      71      1
10    13         8          400        170   4746         12      71      1
# ℹ 184 more rows
# ℹ 1 more variable: name <fct>

Auto_test

# A tibble: 198 × 9
     mpg cylinders displacement horsepower weight acceleration  year origin
   <dbl>     <dbl>        <dbl>      <dbl>  <dbl>        <dbl> <dbl>  <dbl>
 1    18         8          318        150   3436         11      70      1
 2    17         8          302        140   3449         10.5    70      1
 3    15         8          429        198   4341         10      70      1
 4    14         8          454        220   4354          9      70      1
 5    15         8          390        190   3850          8.5    70      1
 6    15         8          383        170   3563         10      70      1
 7    14         8          340        160   3609          8      70      1
 8    15         8          400        150   3761          9.5    70      1
 9    14         8          455        225   3086         10      70      1
10    22         6          198         95   2833         15.5    70      1
# ℹ 188 more rows
# ℹ 1 more variable: name <fct>
…
Coefficients:
      (Intercept)  horsepower_poly_1  horsepower_poly_2  
            23.34            -104.85              34.39  

5.4 The Bootstrap

This section illustrates the use of the bootstrap in the simple Section 5.2 of ISLR, as well as on an example involving estimating the accuracy of the linear regression model on the Auto data set.

First, we want to look at the accuracy of a statistic of interest. This statistic is justified in ISLR. We want to calculate the metric within many different bootstraps. We start by calculating 1000 bootstraps of the Portfolio data set.

Portfolio_boots <- bootstraps(Portfolio, times = 1000)
Portfolio_boots

# Bootstrap sampling 
# A tibble: 1,000 × 2
   splits           id           
   <list>           <chr>        
 1 <split [100/36]> Bootstrap0001
 2 <split [100/39]> Bootstrap0002
 3 <split [100/39]> Bootstrap0003
 4 <split [100/33]> Bootstrap0004
 5 <split [100/39]> Bootstrap0005
 6 <split [100/34]> Bootstrap0006
 7 <split [100/40]> Bootstrap0007
 8 <split [100/38]> Bootstrap0008
 9 <split [100/36]> Bootstrap0009
10 <split [100/41]> Bootstrap0010
# ℹ 990 more rows
…
  (var(Y) - cov(X, Y)) / (var(X) + var(Y) - 2 * cov(X, Y))
}

Now we can use mutate() and map_dbl() from dplyr and purrr respectively to apply alpha.fn to each of the bootstraps.

alpha_res <- Portfolio_boots %>%
  mutate(alpha = map_dbl(splits, alpha.fn))

alpha_res

# Bootstrap sampling 
# A tibble: 1,000 × 3
   splits           id            alpha
   <list>           <chr>         <dbl>
 1 <split [100/36]> Bootstrap0001 0.516
 2 <split [100/39]> Bootstrap0002 0.687
 3 <split [100/39]> Bootstrap0003 0.599
 4 <split [100/33]> Bootstrap0004 0.556
 5 <split [100/39]> Bootstrap0005 0.549
 6 <split [100/34]> Bootstrap0006 0.619
 7 <split [100/40]> Bootstrap0007 0.387
 8 <split [100/38]> Bootstrap0008 0.675
 9 <split [100/36]> Bootstrap0009 0.538
10 <split [100/41]> Bootstrap0010 0.407
# ℹ 990 more rows
…
