…
```r
Auto_train <- training(Auto_split)
Auto_test <- testing(Auto_split)
```

And by looking at `Auto_train` and `Auto_test` we see that the lengths match what we expect.


```r
Auto_train
```

```
## # A tibble: 194 x 9
##      mpg cylinders displacement horsepower weight acceleration  year origin
##    <dbl>     <dbl>        <dbl>      <dbl>  <dbl>        <dbl> <dbl>  <dbl>
##  1    15         8          350        165   3693         11.5    70      1
##  2    16         8          304        150   3433         12      70      1
##  3    14         8          440        215   4312          8.5    70      1
##  4    14         8          455        225   4425         10      70      1
##  5    10         8          307        200   4376         15      70      1
##  6    17         6          250        100   3329         15.5    71      1
##  7    14         8          400        175   4464         11.5    71      1
##  8    14         8          351        153   4154         13.5    71      1
##  9    14         8          318        150   4096         13      71      1
## 10    13         8          400        170   4746         12      71      1
## # … with 184 more rows, and 1 more variable: name <fct>
```

```r
Auto_test
```

```
## # A tibble: 198 x 9
##      mpg cylinders displacement horsepower weight acceleration  year origin
##    <dbl>     <dbl>        <dbl>      <dbl>  <dbl>        <dbl> <dbl>  <dbl>
##  1    18         8          318        150   3436         11      70      1
##  2    17         8          302        140   3449         10.5    70      1
##  3    15         8          429        198   4341         10      70      1
##  4    14         8          454        220   4354          9      70      1
##  5    15         8          390        190   3850          8.5    70      1
##  6    15         8          383        170   3563         10      70      1
##  7    14         8          340        160   3609          8      70      1
##  8    15         8          400        150   3761          9.5    70      1
##  9    14         8          455        225   3086         10      70      1
## 10    22         6          198         95   2833         15.5    70      1
## # … with 188 more rows, and 1 more variable: name <fct>
```
…
  (var(Y) - cov(X, Y)) / (var(X) + var(Y) - 2 * cov(X, Y))
}

alpha_res <- Portfolio_boots %>%
  mutate(alpha = map_dbl(splits, alpha.fn))

alpha_res
```

```
## # Bootstrap sampling 
## # A tibble: 1,000 x 3
##    splits           id            alpha
##    <list>           <chr>         <dbl>
##  1 <split [100/38]> Bootstrap0001 0.674
##  2 <split [100/41]> Bootstrap0002 0.586
##  3 <split [100/31]> Bootstrap0003 0.701
##  4 <split [100/33]> Bootstrap0004 0.572
##  5 <split [100/35]> Bootstrap0005 0.684
##  6 <split [100/36]> Bootstrap0006 0.530
##  7 <split [100/35]> Bootstrap0007 0.609
##  8 <split [100/37]> Bootstrap0008 0.530
##  9 <split [100/36]> Bootstrap0009 0.619
## 10 <split [100/39]> Bootstrap0010 0.475
## # … with 990 more rows
```
…
