ISLR tidymodels labs - 6 Linear Model Selection and Regularization
…
Prediction is done like normal, if we use predict() by itself, then penalty = 0 as we set in the model specification is used.

predict(ridge_fit, new_data = Hitters)

# A tibble: 263 × 1
    .pred
    <dbl>
 1  442. 
 2  676. 
 3 1059. 
 4  521. 
 5  543. 
 6  218. 
 7   74.7
 8   96.1
 9  809. 
10  865. 
# … with 253 more rows

but we can also get predictions for other values of penalty by specifying it in predict()

predict(ridge_fit, new_data = Hitters, penalty = 500)

# A tibble: 263 × 1
   .pred
   <dbl>
 1  525.
 2  620.
 3  895.
 4  425.
 5  589.
 6  179.
 7  147.
 8  187.
 9  841.
10  840.
# … with 253 more rows
…
Now we combine to create a workflow object.

ridge_workflow <- workflow() %>% 
  add_recipe(ridge_recipe) %>% 
  add_model(ridge_spec)

The last thing we need is the values of penalty we are trying. This can be created using grid_regular() which creates a grid of evenly spaces parameter values. We use the penalty() function from the dials package to denote the parameter and set the range of the grid we are searching for. Note that this range is log-scaled.

penalty_grid <- grid_regular(penalty(range = c(-5, 5)), levels = 50)
penalty_grid

# A tibble: 50 × 1
     penalty
       <dbl>
 1 0.00001  
 2 0.0000160
 3 0.0000256
 4 0.0000409
 5 0.0000655
 6 0.000105 
 7 0.000168 
 8 0.000268 
 9 0.000429 
10 0.000687 
# … with 40 more rows
…
Here we see that the amount of regularization affects the performance metrics differently. Note how there are areas where the amount of regularization doesn’t have any meaningful influence on the coefficient estimates. We can also see the raw metrics that created this chart by calling collect_matrics().

collect_metrics(tune_res)

# A tibble: 100 × 7
     penalty .metric .estimator    mean     n std_err .config              
       <dbl> <chr>   <chr>        <dbl> <int>   <dbl> <chr>                
 1 0.00001   rmse    standard   342.       10 35.7    Preprocessor1_Model01
 2 0.00001   rsq     standard     0.455    10  0.0500 Preprocessor1_Model01
 3 0.0000160 rmse    standard   342.       10 35.7    Preprocessor1_Model02
 4 0.0000160 rsq     standard     0.455    10  0.0500 Preprocessor1_Model02
 5 0.0000256 rmse    standard   342.       10 35.7    Preprocessor1_Model03
 6 0.0000256 rsq     standard     0.455    10  0.0500 Preprocessor1_Model03
 7 0.0000409 rmse    standard   342.       10 35.7    Preprocessor1_Model04
 8 0.0000409 rsq     standard     0.455    10  0.0500 Preprocessor1_Model04
 9 0.0000655 rmse    standard   342.       10 35.7    Preprocessor1_Model05
10 0.0000655 rsq     standard     0.455    10  0.0500 Preprocessor1_Model05
# … with 90 more rows
…
