ISLR tidymodels labs - 7 Moving Beyond Linearity
…
Let us try something new and visualize the polynomial fit on our data. We can do this easily because we only have 1 predictor and 1 response. Starting with creating a tibble with different ranges of age. Then we take this tibble and predict with it, this will give us the repression curve. We are additionally adding confidence intervals by setting type = "conf_int" which we can do since we are using a linear regression model.

age_range <- tibble(age = seq(min(Wage$age), max(Wage$age)))

regression_lines <- bind_cols(
  augment(poly_fit, new_data = age_range),
  predict(poly_fit, new_data = age_range, type = "conf_int")
)
regression_lines

# A tibble: 63 × 4
     age .pred .pred_lower .pred_upper
   <int> <dbl>       <dbl>       <dbl>
 1    18  51.9        41.5        62.3
 2    19  58.5        49.9        67.1
 3    20  64.6        57.5        71.6
 4    21  70.2        64.4        76.0
 5    22  75.4        70.5        80.2
 6    23  80.1        76.0        84.2
 7    24  84.5        80.9        88.1
 8    25  88.5        85.2        91.7
 9    26  92.1        89.1        95.2
10    27  95.4        92.5        98.4
# … with 53 more rows
…
lr_spec <- logistic_reg() %>%
  set_engine("glm") %>%
  set_mode("classification")

lr_poly_wf <- workflow() %>%
  add_model(lr_spec) %>%
  add_recipe(rec_poly)

This polynomial logistic regression model workflow can now be fit and predicted with as usual.

lr_poly_fit <- fit(lr_poly_wf, data = Wage)

predict(lr_poly_fit, new_data = Wage)

# A tibble: 3,000 × 1
   .pred_class
   <fct>      
 1 Low        
 2 Low        
 3 Low        
 4 Low        
 5 Low        
 6 Low        
 7 Low        
 8 Low        
 9 Low        
10 Low        
# … with 2,990 more rows

If we want we can also get back the underlying probability predictions for the two classes, and their confidence intervals for these probability predictions by setting type = "prob" and type = "conf_int".

predict(lr_poly_fit, new_data = Wage, type = "prob")

# A tibble: 3,000 × 2
      .pred_High .pred_Low
           <dbl>     <dbl>
 1 0.00000000983     1.00 
 2 0.000120          1.00 
 3 0.0307            0.969
 4 0.0320            0.968
 5 0.0305            0.970
 6 0.0352            0.965
 7 0.0313            0.969
 8 0.00820           0.992
 9 0.0334            0.967
10 0.0323            0.968
# … with 2,990 more rows

predict(lr_poly_fit, new_data = Wage, type = "conf_int")

# A tibble: 3,000 × 4
   .pred_lower_High .pred_upper_High .pred_lower_Low .pred_upper_Low
              <dbl>            <dbl>           <dbl>           <dbl>
 1         2.22e-16          0.00166           0.998           1    
 2         1.82e- 6          0.00786           0.992           1.00 
 3         2.19e- 2          0.0428            0.957           0.978
 4         2.31e- 2          0.0442            0.956           0.977
 5         2.13e- 2          0.0434            0.957           0.979
 6         2.45e- 2          0.0503            0.950           0.975
 7         2.25e- 2          0.0434            0.957           0.977
 8         3.01e- 3          0.0222            0.978           0.997
 9         2.39e- 2          0.0465            0.953           0.976
10         2.26e- 2          0.0458            0.954           0.977
# … with 2,990 more rows
…
rec_spline <- recipe(wage ~ age, data = Wage) %>%
  step_bs(age, options = list(knots = 25, 40, 60))

We already have the linear regression specification lm_spec so we can create the workflow, fit the model and predict with it like we have seen how to do in the previous chapters.

spline_wf <- workflow() %>%
  add_model(lm_spec) %>%
  add_recipe(rec_spline)

spline_fit <- fit(spline_wf, data = Wage)

predict(spline_fit, new_data = Wage)

# A tibble: 3,000 × 1
   .pred
   <dbl>
 1  58.7
 2  84.3
 3 120. 
 4 120. 
 5 120. 
 6 119. 
 7 120. 
 8 102. 
 9 119. 
10 120. 
# … with 2,990 more rows
…
