…
```r
rec_poly <- recipe(high ~ age, data = Wage) %>%
  step_poly(age, degree = 4)

poly_wf <- workflow() %>%
  add_model(lr_spec) %>%
  add_recipe(rec_poly)

poly_fit <- fit(poly_wf, data = Wage)

predict(poly_fit, new_data = Wage)
```

```
## # A tibble: 3,000 x 1
##    .pred_class
##    <fct>      
##  1 Low        
##  2 Low        
##  3 Low        
##  4 Low        
##  5 Low        
##  6 Low        
##  7 Low        
##  8 Low        
##  9 Low        
## 10 Low        
## # … with 2,990 more rows
```

```r
predict(poly_fit, new_data = Wage, type = "prob")
```

```
## # A tibble: 3,000 x 2
##       .pred_High .pred_Low
##            <dbl>     <dbl>
##  1 0.00000000983     1.00 
##  2 0.000120          1.00 
##  3 0.0307            0.969
##  4 0.0320            0.968
##  5 0.0305            0.970
##  6 0.0352            0.965
##  7 0.0313            0.969
##  8 0.00820           0.992
##  9 0.0334            0.967
## 10 0.0323            0.968
## # … with 2,990 more rows
```

```r
predict(poly_fit, new_data = Wage, type = "conf_int")
```

```
## # A tibble: 3,000 x 4
##    .pred_lower_High .pred_upper_High .pred_lower_Low .pred_upper_Low
##               <dbl>            <dbl>           <dbl>           <dbl>
##  1         2.22e-16          0.00166           0.998           1    
##  2         1.82e- 6          0.00786           0.992           1.00 
##  3         2.19e- 2          0.0428            0.957           0.978
##  4         2.31e- 2          0.0442            0.956           0.977
##  5         2.13e- 2          0.0434            0.957           0.979
##  6         2.45e- 2          0.0503            0.950           0.975
##  7         2.25e- 2          0.0434            0.957           0.977
##  8         3.01e- 3          0.0222            0.978           0.997
##  9         2.39e- 2          0.0465            0.953           0.976
## 10         2.26e- 2          0.0458            0.954           0.977
## # … with 2,990 more rows
```
…
```r
rec_cut <- recipe(high ~ age, data = Wage) %>%
  step_discretize(age, num_breaks = 4)

cut_wf <- workflow() %>%
  add_model(lr_spec) %>%
  add_recipe(rec_cut)

cut_fit <- fit(cut_wf, data = Wage)

predict(cut_fit, new_data = Wage)
```

```
## # A tibble: 3,000 x 1
##    .pred_class
##    <fct>      
##  1 Low        
##  2 Low        
##  3 Low        
##  4 Low        
##  5 Low        
##  6 Low        
##  7 Low        
##  8 Low        
##  9 Low        
## 10 Low        
## # … with 2,990 more rows
```

```r
predict(cut_fit, new_data = Wage, type = "prob")
```

```
## # A tibble: 3,000 x 2
##    .pred_High .pred_Low
##         <dbl>     <dbl>
##  1    0.00667     0.993
##  2    0.00667     0.993
##  3    0.0343      0.966
##  4    0.0343      0.966
##  5    0.0343      0.966
##  6    0.0356      0.964
##  7    0.0343      0.966
##  8    0.00667     0.993
##  9    0.0290      0.971
## 10    0.0356      0.964
## # … with 2,990 more rows
```

```r
predict(cut_fit, new_data = Wage, type = "conf_int")
```

```
## # A tibble: 3,000 x 4
##    .pred_lower_High .pred_upper_High .pred_lower_Low .pred_upper_Low
##               <dbl>            <dbl>           <dbl>           <dbl>
##  1          0.00278           0.0159           0.984           0.997
##  2          0.00278           0.0159           0.984           0.997
##  3          0.0238            0.0492           0.951           0.976
##  4          0.0238            0.0492           0.951           0.976
##  5          0.0238            0.0492           0.951           0.976
##  6          0.0240            0.0526           0.947           0.976
##  7          0.0238            0.0492           0.951           0.976
##  8          0.00278           0.0159           0.984           0.997
##  9          0.0192            0.0436           0.956           0.981
## 10          0.0240            0.0526           0.947           0.976
## # … with 2,990 more rows
```
…
```r
rec_spline <- recipe(wage ~ age, data = Wage) %>%
  step_bs(age, options = list(knots = 25, 40, 60))

spline_wf <- workflow() %>%
  add_model(lm_spec) %>%
  add_recipe(rec_spline)

cut_fit <- fit(spline_wf, data = Wage)

predict(cut_fit, new_data = Wage)
```

```
## # A tibble: 3,000 x 1
##    .pred
##    <dbl>
##  1  58.7
##  2  84.3
##  3 120. 
##  4 120. 
##  5 120. 
##  6 119. 
##  7 120. 
##  8 102. 
##  9 119. 
## 10 120. 
## # … with 2,990 more rows
```

```r
predict(cut_fit, new_data = Wage, type = "conf_int")
```

```
## # A tibble: 3,000 x 2
##    .pred_lower .pred_upper
##          <dbl>       <dbl>
##  1        50.8        66.6
##  2        80.7        87.8
##  3       119.        122. 
##  4       118.        122. 
##  5       118.        122. 
##  6       116.        121. 
##  7       118.        122. 
##  8        99.8       104. 
##  9       117.        121. 
## 10       117.        122. 
## # … with 2,990 more rows
```
…
