…
## ROC Curves

ROC curves can easily be created using the `roc_curve()` from the yardstick package. We use this function much the same way as we have done using the `accuracy()` function, but the main difference is that we pass the predicted class probability to `estimate` instead of passing the predicted class.


```r
augment(svm_rbf_fit, new_data = sim_data2_test) %>%
  roc_curve(truth = y, estimate = .pred_1)
```

```
## # A tibble: 202 x 3
##    .threshold specificity sensitivity
##         <dbl>       <dbl>       <dbl>
##  1  -Inf             0          1    
##  2     0.0130        0          1    
##  3     0.0131        0.02       1    
##  4     0.0137        0.04       1    
##  5     0.0150        0.04       0.993
##  6     0.0155        0.06       0.993
##  7     0.0158        0.08       0.993
##  8     0.0168        0.1        0.993
##  9     0.0174        0.12       0.993
## 10     0.0175        0.14       0.993
## # … with 192 more rows
```
…
