Chapter 5 Extra - comparing multiple models | ISLR tidymodels Labs
…
models <- list("logistic regression" = lr_fit3,
               "LDA" = lda_fit,
               "QDA" = qda_fit,
               "KNN" = knn_fit)

Next use imap_dfr() from the purrr package to apply augment() to each of the models using the testing data set. .id = "model" creates a column named "model" that is added to the resulting tibble using the names of models.

preds <- imap_dfr(models, augment, 
                  new_data = Smarket_test, .id = "model")

preds %>%
  select(model, Direction, .pred_class, .pred_Down, .pred_Up)

## # A tibble: 1,008 x 5
##    model               Direction .pred_class .pred_Down .pred_Up
##    <chr>               <fct>     <fct>            <dbl>    <dbl>
##  1 logistic regression Down      Up               0.490    0.510
##  2 logistic regression Down      Up               0.479    0.521
##  3 logistic regression Down      Up               0.467    0.533
##  4 logistic regression Up        Up               0.474    0.526
##  5 logistic regression Down      Up               0.493    0.507
##  6 logistic regression Up        Up               0.494    0.506
##  7 logistic regression Down      Up               0.495    0.505
##  8 logistic regression Up        Up               0.487    0.513
##  9 logistic regression Down      Up               0.491    0.509
## 10 logistic regression Up        Up               0.484    0.516
## # … with 998 more rows
…
