Chapter 6 Linear Model Selection and Regularization | ISLR tidymodels Labs
…
predict(ridge_fit, new_data = Hitters, penalty = 50)

## # A tibble: 263 x 1
##     .pred
##     <dbl>
##  1  469. 
##  2  663. 
##  3 1023. 
##  4  505. 
##  5  550. 
##  6  200. 
##  7   79.4
##  8  105. 
##  9  836. 
## 10  865. 
## # … with 253 more rows
…
