Chapter 3 Linear Regression | ISLR tidymodels Labs
…
Suppose that we like the model fit and we want to generate predictions, we would typically use the predict() function like so:

predict(lm_fit)

## Error in predict_numeric(object = object, new_data = new_data, ...): argument "new_data" is missing, with no default

But this produces an error when used on a parsnip model object. This is happening because we need to explicitly supply the data set that the predictions should be performed on via the new_data argument

predict(lm_fit, new_data = Boston)

## # A tibble: 506 x 1
##    .pred
##    <dbl>
##  1 29.8 
##  2 25.9 
##  3 30.7 
##  4 31.8 
##  5 29.5 
##  6 29.6 
##  7 22.7 
##  8 16.4 
##  9  6.12
## 10 18.3 
## # … with 496 more rows

Notice how the predictions are returned as a tibble. This will always be the case for parsnip models, no matter what engine is used. This is very useful since consistency allows us to combine data sets easily.

We can also return other types of predicts by specifying the type argument. Setting type = "conf_int" return a 95% confidence interval.

predict(lm_fit, new_data = Boston, type = "conf_int")

## # A tibble: 506 x 2
##    .pred_lower .pred_upper
##          <dbl>       <dbl>
##  1       29.0        30.6 
##  2       25.3        26.5 
##  3       29.9        31.6 
##  4       30.8        32.7 
##  5       28.7        30.3 
##  6       28.8        30.4 
##  7       22.2        23.3 
##  8       15.6        17.1 
##  9        4.70        7.54
## 10       17.7        18.9 
## # … with 496 more rows

Not all engines can return all types of predictions.

If you want to evaluate the performance of a model, you might want to compare the observed value and the predicted value for a data set. You

bind_cols(
  predict(lm_fit, new_data = Boston),
  Boston
) %>%
  select(medv, .pred)

## # A tibble: 506 x 2
##     medv .pred
##    <dbl> <dbl>
##  1  24   29.8 
##  2  21.6 25.9 
##  3  34.7 30.7 
##  4  33.4 31.8 
##  5  36.2 29.5 
##  6  28.7 29.6 
##  7  22.9 22.7 
##  8  27.1 16.4 
##  9  16.5  6.12
## 10  18.9 18.3 
## # … with 496 more rows

You can get the same results using the augment() function to same you a little bit of typing

augment(lm_fit, new_data = Boston) %>%
  select(medv, .pred)

## # A tibble: 506 x 2
##     medv .pred
##    <dbl> <dbl>
##  1  24   29.8 
##  2  21.6 25.9 
##  3  34.7 30.7 
##  4  33.4 31.8 
##  5  36.2 29.5 
##  6  28.7 29.6 
##  7  22.9 22.7 
##  8  27.1 16.4 
##  9  16.5  6.12
## 10  18.9 18.3 
## # … with 496 more rows
…
tidy(lm_fit2)

## # A tibble: 3 x 5
##   term        estimate std.error statistic   p.value
##   <chr>          <dbl>     <dbl>     <dbl>     <dbl>
## 1 (Intercept)  33.2       0.731      45.5  2.94e-180
## 2 lstat        -1.03      0.0482    -21.4  8.42e- 73
## 3 age           0.0345    0.0122      2.83 4.91e-  3

to predicting new values

predict(lm_fit2, new_data = Boston)

## # A tibble: 506 x 1
##    .pred
##    <dbl>
##  1 30.3 
##  2 26.5 
##  3 31.2 
##  4 31.8 
##  5 29.6 
##  6 29.9 
##  7 22.7 
##  8 16.8 
##  9  5.79
## 10 18.5 
## # … with 496 more rows
…
