Chapter 5 Resampling Methods | ISLR tidymodels Labs
…
alpha.fn <- function(split) {
  data <- analysis(split)
  X <- data$X
  Y <- data$Y
  
  (var(Y) - cov(X, Y)) / (var(X) + var(Y) - 2 * cov(X, Y))
}

alpha_res <- Portfolio_boots %>%
  mutate(alpha = map_dbl(splits, alpha.fn))

alpha_res

## # Bootstrap sampling 
## # A tibble: 1,000 x 3
##    splits           id            alpha
##    <list>           <chr>         <dbl>
##  1 <split [100/37]> Bootstrap0001 0.457
##  2 <split [100/38]> Bootstrap0002 0.522
##  3 <split [100/33]> Bootstrap0003 0.482
##  4 <split [100/35]> Bootstrap0004 0.614
##  5 <split [100/35]> Bootstrap0005 0.598
##  6 <split [100/38]> Bootstrap0006 0.624
##  7 <split [100/34]> Bootstrap0007 0.700
##  8 <split [100/40]> Bootstrap0008 0.416
##  9 <split [100/34]> Bootstrap0009 0.540
## 10 <split [100/36]> Bootstrap0010 0.735
## # … with 990 more rows
…
