Chapter 9 Support Vector Machines | ISLR tidymodels Labs
…
##           Truth
## Prediction   1   2
##          1 137   7
##          2  13  43

9.3 ROC Curves

ROC curves can easily be created using the roc_curve() from the yardstick package. We use this function much the same way as we have done using the accuracy() function, but the main difference is that we pass the predicted class probability to estimate instead of passing the predicted class.

augment(svm_rbf_fit, new_data = sim_data2_test) %>%
  roc_curve(truth = y, estimate = .pred_1)

## # A tibble: 202 × 3
##    .threshold specificity sensitivity
##         <dbl>       <dbl>       <dbl>
##  1   -Inf            0          1    
##  2      0.104        0          1    
##  3      0.113        0.02       1    
##  4      0.114        0.04       1    
##  5      0.115        0.06       1    
##  6      0.117        0.08       1    
##  7      0.118        0.1        1    
##  8      0.119        0.12       1    
##  9      0.124        0.14       1    
## 10      0.124        0.14       0.993
## # … with 192 more rows
…
