Chapter 10 Unsupervised Learning | ISLR tidymodels Labs
…
# on the direct PCA object
usarrests_pca <- usarrests %>%
  select(-state) %>%
  prcomp(scale = TRUE)

tidy(usarrests_pca)

## # A tibble: 200 x 3
##      row    PC  value
##    <int> <dbl>  <dbl>
##  1     1     1 -0.976
##  2     1     2  1.12 
##  3     1     3 -0.440
##  4     1     4  0.155
##  5     2     1 -1.93 
##  6     2     2  1.06 
##  7     2     3  2.02 
##  8     2     4 -0.434
##  9     3     1 -1.75 
## 10     3     2 -0.738
## # … with 190 more rows

augment(usarrests_pca)

## # A tibble: 50 x 5
##    .rownames .fittedPC1 .fittedPC2 .fittedPC3 .fittedPC4
##    <chr>          <dbl>      <dbl>      <dbl>      <dbl>
##  1 1            -0.976      1.12      -0.440     0.155  
##  2 2            -1.93       1.06       2.02     -0.434  
##  3 3            -1.75      -0.738      0.0542   -0.826  
##  4 4             0.140      1.11       0.113    -0.181  
##  5 5            -2.50      -1.53       0.593    -0.339  
##  6 6            -1.50      -0.978      1.08      0.00145
##  7 7             1.34      -1.08      -0.637    -0.117  
##  8 8            -0.0472    -0.322     -0.711    -0.873  
##  9 9            -2.98       0.0388    -0.571    -0.0953 
## 10 10           -1.62       1.27      -0.339     1.07   
## # … with 40 more rows
…
The glance() function returns model wise metrics. One of these is tot.withinss which is the total within-cluster sum-of-squares that we seek to minimize when we perform K-means clustering.

glance(res_kmeans)

## # A tibble: 1 x 4
##   totss tot.withinss betweenss  iter
##   <dbl>        <dbl>     <dbl> <int>
## 1  416.         96.4      320.     2

Lastly, we can see what cluster each observation belongs to by using augment() which “predict” which cluster a given observation belongs to.

augment(res_kmeans, data = x_df)

## # A tibble: 50 x 3
##         V1     V2 .cluster
##      <dbl>  <dbl> <fct>   
##  1 -0.897  -0.838 2       
##  2  0.185   2.07  2       
##  3  1.59   -0.562 2       
##  4 -1.13    1.28  2       
##  5 -0.0803 -1.05  2       
##  6  0.132  -1.97  2       
##  7  0.708  -0.323 2       
##  8 -0.240   0.936 2       
##  9  1.98    1.14  2       
## 10 -0.139   1.67  2       
## # … with 40 more rows
…
nci60_pca <- prcomp(nci60 %>% select(-label), scale = TRUE)
tidy(nci60_pca)

## # A tibble: 4,096 x 3
##      row    PC   value
##    <int> <dbl>   <dbl>
##  1     1     1 -19.7  
##  2     1     2   3.53 
##  3     1     3  -9.74 
##  4     1     4   0.818
##  5     1     5 -12.5  
##  6     1     6   7.41 
##  7     1     7 -14.1  
##  8     1     8   3.17 
##  9     1     9 -21.8  
## 10     1    10  20.2  
## # … with 4,086 more rows

augment(nci60_pca)

## # A tibble: 64 x 65
##    .rownames .fittedPC1 .fittedPC2 .fittedPC3 .fittedPC4 .fittedPC5 .fittedPC6
##    <chr>          <dbl>      <dbl>      <dbl>      <dbl>      <dbl>      <dbl>
##  1 1              -19.7       3.53     -9.74       0.818     -12.5       7.41 
##  2 2              -22.9       6.39    -13.4       -5.59       -7.97      3.69 
##  3 3              -27.2       2.45     -3.51       1.33      -12.5      17.2  
##  4 4              -42.5      -9.69     -0.883     -3.42      -41.9      27.0  
##  5 5              -55.0      -5.16    -20.9      -15.7       -10.4      12.9  
##  6 6              -27.0       6.73    -21.6      -13.7         7.93      0.707
##  7 7              -31.2       3.83    -30.1      -41.3        10.3     -16.9  
##  8 8              -22.2      10.3     -18.6       -6.90       -5.48     11.6  
##  9 9              -14.2      16.0     -19.6       -6.51       -3.77     -7.96 
## 10 10             -29.5      23.8      -5.84       9.94        3.42     11.6  
## # … with 54 more rows, and 58 more variables: .fittedPC7 <dbl>,
## #   .fittedPC8 <dbl>, .fittedPC9 <dbl>, .fittedPC10 <dbl>, .fittedPC11 <dbl>,
## #   .fittedPC12 <dbl>, .fittedPC13 <dbl>, .fittedPC14 <dbl>, .fittedPC15 <dbl>,
## #   .fittedPC16 <dbl>, .fittedPC17 <dbl>, .fittedPC18 <dbl>, .fittedPC19 <dbl>,
## #   .fittedPC20 <dbl>, .fittedPC21 <dbl>, .fittedPC22 <dbl>, .fittedPC23 <dbl>,
## #   .fittedPC24 <dbl>, .fittedPC25 <dbl>, .fittedPC26 <dbl>, .fittedPC27 <dbl>,
## #   .fittedPC28 <dbl>, .fittedPC29 <dbl>, .fittedPC30 <dbl>, .fittedPC31 <dbl>,
## #   .fittedPC32 <dbl>, .fittedPC33 <dbl>, .fittedPC34 <dbl>, .fittedPC35 <dbl>,
## #   .fittedPC36 <dbl>, .fittedPC37 <dbl>, .fittedPC38 <dbl>, .fittedPC39 <dbl>,
…
